{
  "apiVersion": "opentestfactory.org/v1alpha1",
  "kind": "Workflow",
  "metadata": {
    "name": "JsonSquashJenkins"
  },
  "defaults": {
    "runs-on": "junit"
  },
  "jobs": {
    "explicitJob": {
      "runs-on": "junit",
      "generator": "tm.squashtest.org/tm.generator@v1",
      "with": {
        "testPlanUuid": "da3cd22f-f709-4823-8cee-88bd6b58545f",
        "testPlanType": "Iteration",
        "squashTMUrl": "http://192.168.102.214:8080/squash",
        "squashTMAutomatedServerLogin": "admin",
        "squashTMAutomatedServerPassword": "admin"
      }
    }
  }
}
